@startuml
'https://plantuml.com/class-diagram



class Add {
    +name(이름): String
    +displayYn(노출여부): Boolean
    +url(URL): String
    +keyword(키워드): String
    +description(설명): String
    +versions(버전-목록): Version
    +templates(템플릿-목록): Template
    +serials(샘플-일련번호배열) : Number[]
    +titles(샘플-제목배열) : String[]
    +status(샘플-상태배열) : Boolean[]
    +days(샘플-일시배열) : Date[]
}

class Template {
    +name(이름): String
    +displayYn(노출여부): Boolean
    +startDt(시작일시): Date
    +endDt(종료일시): Date
    +pages(페이지-목록): Page[]
}

class Version {
    +name(이름): String
    +displayYn(노출여부): Boolean
    +startDt(시작일시): Date
    +endDt(종료일시): Date
}

class Page {
    +name(이름): String
    +displayYn(노출여부): Boolean
    +bodies(바디-목록): Body[]
}

class Body {
    +name(이름): String
    +displayYn(노출여부): Boolean
    +componentCode(컴포넌트코드): Enum
    +imagePool(묶음이미지): ImagePool
}

class ImagePool {
    +name(이름): String
    +displayYn(노출여부): Boolean
    +images(이미지-목록): Image[]
}


class Image {
    +name(이름): String
    +displayYn(노출여부): Boolean
}

Add *-- Template
Add *-- Version
Template *-- Page
Page *-- Body
Body *-- COMPONENT_CODE
Body *-- ImagePool
ImagePool *-- Image

enum COMPONENT_CODE {
    IMAGE_POOL(묶음이미지)
    SPACE(공백)
}

@enduml